{
  "parent": "minecraft:end/kill_dragon",
  "criteria": {
    "summoned_dragoon": {
      "conditions": {
        "entity": [
          {
            "condition": "minecraft:entity_properties",
            "entity": "this",
            "predicate": {
              "type": "minecraft:ender_dragon",
              "passenger": {
                "type": "ragnagoblin:ragna_goblin"
              }
            }
          }
        ]
      },
      "trigger": "minecraft:summoned_entity"
    }
  },
  "display": {
    "announce_to_chat": true,
    "description": {
      "translate": "advancements.ragnagoblin.spawn_dragoon.description"
    },
    "frame": "goal",
    "hidden": true,
    "icon": {
      "item": "minecraft:saddle",
      "nbt": "{Enchantments:[{id:\"minecraft:vanishing_curse\", lvl:1}], 'quark:RuneAttached':1, 'quark:RuneColor':{Count:1, id:\"quark:purple_rune\"}}"
    },
    "show_toast": true,
    "title": {
      "translate": "advancements.ragnagoblin.spawn_dragoon.title"
    }
  },
  "requirements": [
    [
      "summoned_dragoon"
    ]
  ]
}